[
  {
    "question_id": "1",
    "text": "tak",
    "points": "30"
  },
  {
    "question_id": "1",
    "text": "nie",
    "points": "10"
  },
  {
    "question_id": "2",
    "text": "mega",
    "points": "44"
  },
  {
    "question_id": "2",
    "text": "spoko",
    "points": "37"
  },
  {
    "question_id": "2",
    "text": "niezbyt",
    "points": "30"
  },
  {
    "question_id": "2",
    "text": "ujdzie",
    "points": "15"
  },
  {
    "question_id": "2",
    "text": "słabo",
    "points": "10"
  },
  {
    "question_id": "2",
    "text": "tragedia",
    "points": "4"
  },
  {
    "question_id": "3",
    "text": "tak?",
    "points": "40"
  },
  {
    "question_id": "3",
    "text": "o co chodzi?",
    "points": "1000"
  },
  {
    "question_id": "4",
    "text": "no czemu nie",
    "points": "10000000"
  },
  {
    "question_id": "5",
    "text": "bo tak",
    "points": "20"
  },
  {
    "question_id": "5",
    "text": "bo mogę",
    "points": "10"
  }
]