[
  {
    "ID": "1",
    "text": "Tak czy nie?",
    "is_final": "0"
  },
  {
    "ID": "2",
    "text": "Co tam?",
    "is_final": "0"
  },
  {
    "ID": "3",
    "text": "Halo?",
    "is_final": "0"
  },
  {
    "ID": "4",
    "text": "Final?",
    "is_final": "1"
  },
  {
    "ID": "5",
    "text": "Ale po co?",
    "is_final": "1"
  }
]